\relax 
\@writefile{toc}{\contentsline {section}{\numberline {0.5}Google Careers Official Website}{4}}
\@writefile{toc}{\contentsline {section}{\numberline {0.6}Business Insider: Tips on how to get a high-paying job at Google even with a low GPA}{4}}
\@setckpt{./alex}{
\setcounter{page}{5}
\setcounter{equation}{0}
\setcounter{enumi}{0}
\setcounter{enumii}{0}
\setcounter{enumiii}{0}
\setcounter{enumiv}{0}
\setcounter{footnote}{0}
\setcounter{mpfootnote}{0}
\setcounter{part}{0}
\setcounter{chapter}{0}
\setcounter{section}{6}
\setcounter{subsection}{0}
\setcounter{subsubsection}{0}
\setcounter{paragraph}{0}
\setcounter{subparagraph}{0}
\setcounter{figure}{0}
\setcounter{table}{0}
}
