\relax 
\@writefile{toc}{\contentsline {section}{\numberline {0.3}Britannica: Google Inc.}{3}}
\@writefile{toc}{\contentsline {section}{\numberline {0.4}Business Insider: Why Google is the Best Company to Work For}{3}}
\@setckpt{./andy}{
\setcounter{page}{4}
\setcounter{equation}{0}
\setcounter{enumi}{0}
\setcounter{enumii}{0}
\setcounter{enumiii}{0}
\setcounter{enumiv}{0}
\setcounter{footnote}{0}
\setcounter{mpfootnote}{0}
\setcounter{part}{0}
\setcounter{chapter}{0}
\setcounter{section}{4}
\setcounter{subsection}{0}
\setcounter{subsubsection}{0}
\setcounter{paragraph}{0}
\setcounter{subparagraph}{0}
\setcounter{figure}{0}
\setcounter{table}{0}
}
