\relax 
\@writefile{toc}{\contentsline {section}{\numberline {0.1}LinkedIn: Google Jobs in Sydney, Australia}{2}}
\@writefile{toc}{\contentsline {section}{\numberline {0.2}Business Insider: What it's like inside Australia's Google HQ in Sydney}{2}}
\@setckpt{./matt}{
\setcounter{page}{3}
\setcounter{equation}{0}
\setcounter{enumi}{0}
\setcounter{enumii}{0}
\setcounter{enumiii}{0}
\setcounter{enumiv}{0}
\setcounter{footnote}{0}
\setcounter{mpfootnote}{0}
\setcounter{part}{0}
\setcounter{chapter}{0}
\setcounter{section}{2}
\setcounter{subsection}{0}
\setcounter{subsubsection}{0}
\setcounter{paragraph}{0}
\setcounter{subparagraph}{0}
\setcounter{figure}{0}
\setcounter{table}{0}
}
