\relax 
\@writefile{toc}{\contentsline {section}{\numberline {0.7}IT and it's role in the modern organization}{5}}
\@writefile{toc}{\contentsline {section}{\numberline {0.8}Goole's Careers offical page}{5}}
\@setckpt{./nelson}{
\setcounter{page}{6}
\setcounter{equation}{0}
\setcounter{enumi}{0}
\setcounter{enumii}{0}
\setcounter{enumiii}{0}
\setcounter{enumiv}{0}
\setcounter{footnote}{0}
\setcounter{mpfootnote}{0}
\setcounter{part}{0}
\setcounter{chapter}{0}
\setcounter{section}{8}
\setcounter{subsection}{0}
\setcounter{subsubsection}{0}
\setcounter{paragraph}{0}
\setcounter{subparagraph}{0}
\setcounter{figure}{0}
\setcounter{table}{0}
}
